<svg xmlns="http://www.w3.org/2000/svg" viewBox="0 0 25.999 23.003">
  <path id="Path_35" data-name="Path 35" d="M16.515,21.525a.709.709,0,0,0,.135.013.721.721,0,0,0,.709-.585,3.918,3.918,0,0,0,.073-.74,4.337,4.337,0,0,0-2.63-3.889,3.158,3.158,0,0,0,1.087-2.38,3.251,3.251,0,0,0-6.5,0,3.16,3.16,0,0,0,1.105,2.394,4.331,4.331,0,0,0-2.6,3.874,4.027,4.027,0,0,0,.072.737.723.723,0,1,0,1.422-.261,2.621,2.621,0,0,1-.049-.476A3.143,3.143,0,0,1,12.664,17.3a3.142,3.142,0,0,1,3.324,2.917,2.528,2.528,0,0,1-.048.471.717.717,0,0,0,.57.841Zm-3.876-9.338a1.757,1.757,0,1,1-1.8,1.756,1.784,1.784,0,0,1,1.8-1.756Z" transform="translate(-4.334 -6.458)" fill="#fff"/>
  <path id="Path_36" data-name="Path 36" d="M29.611,12.2a.72.72,0,0,0,.722-.718h0V9.328a2.883,2.883,0,0,0-2.889-2.87H7.222a2.882,2.882,0,0,0-2.888,2.87V22.96a2.882,2.882,0,0,0,2.888,2.87h5.563a.73.73,0,0,1,.511.211l3.016,3a1.449,1.449,0,0,0,2.041,0l3.017-3a.73.73,0,0,1,.511-.211h5.562a2.882,2.882,0,0,0,2.89-2.87V15.067a.722.722,0,1,0-1.445,0V22.96a1.442,1.442,0,0,1-1.444,1.44H21.882a2.16,2.16,0,0,0-1.532.628l-3.017,3-3.017-3a2.159,2.159,0,0,0-1.532-.63H7.222a1.442,1.442,0,0,1-1.444-1.435V9.328A1.442,1.442,0,0,1,7.222,7.893H27.444a1.442,1.442,0,0,1,1.444,1.435V11.48a.72.72,0,0,0,.722.718Z" transform="translate(-4.334 -6.458)" fill="#fff"/>
  <path id="Path_37" data-name="Path 37" d="M22.388,19.372a.719.719,0,0,0,.722-.716h0V16.5h2.167a.718.718,0,1,0,0-1.435H23.111v-2.15a.723.723,0,0,0-1.444,0v2.152H19.5a.718.718,0,1,0,0,1.435h2.167v2.152a.719.719,0,0,0,.722.717Z" transform="translate(-4.334 -6.458)" fill="#fff"/>
</svg>
