<svg xmlns="http://www.w3.org/2000/svg" viewBox="0 0 330 180" fill="#525355">
  <path id="XMLID_225_" d="M325.607,79.393a15,15,0,0,0-21.213,0L165,218.787,25.607,79.393A15,15,0,0,0,4.394,100.607l150,150a15,15,0,0,0,21.212,0l150-150A15,15,0,0,0,325.607,79.393Z" transform="translate(0 -75)"/>
</svg>
