<svg xmlns="http://www.w3.org/2000/svg" width="18" height="17" viewBox="0 0 18 17">
  <g id="Vector_Smart_Object" data-name="Vector Smart Object" transform="translate(-1.132 -1.556)">
    <g id="star">
      <path id="Path_72" data-name="Path 72" d="M18.94,8.63,15,12.44l.931,5.382a.626.626,0,0,1-.252.614.638.638,0,0,1-.667.048l-4.877-2.541L5.255,18.483a.635.635,0,0,1-.667-.048.626.626,0,0,1-.252-.614l.931-5.382L1.323,8.63a.624.624,0,0,1-.16-.643.634.634,0,0,1,.512-.427l5.451-.785,2.438-4.9a.663.663,0,0,1,1.136,0l2.438,4.9,5.451.785a.633.633,0,0,1,.512.427.624.624,0,0,1-.16.643Z" fill="#fff"/>
    </g>
  </g>
</svg>
