<svg xmlns="http://www.w3.org/2000/svg" viewBox="0 0 56 74">
  <g id="Group_9" data-name="Group 9" transform="translate(-14.251 0)">
    <path id="Path_41" data-name="Path 41" d="M44.888,5.648a13.192,13.192,0,0,1-3.633-2.619c-3.172-3.4-11.04-4.874-14.776.643a2.365,2.365,0,0,1-.96.809c-1.863.874-6.4,4.046-1.894,12.013a26.23,26.23,0,0,1,2.2,4.827A5.66,5.66,0,0,0,27.45,18.2a6.48,6.48,0,0,0-.5-2.511c-.268-.743-.446-1.234-.091-1.724a1.387,1.387,0,0,1,1.946-.152,1.191,1.191,0,0,1,.543,1.056l-.021.74a.962.962,0,0,0,1.92.106c.277-3.527.8-5.976,1.4-6.551.476-.455,1.585-.313,2.988-.133a16.621,16.621,0,0,0,5.834-.008c-.013.053-.027.114-.041.178l.329-.46a17.371,17.371,0,0,0,3.2-1.63.848.848,0,0,0-.08-1.461Z" fill="#3c58a0"/>
    <path id="Path_42" data-name="Path 42" d="M25.519,4.481c-1.863.874-6.4,4.046-1.894,12.013a26.23,26.23,0,0,1,2.2,4.827A5.66,5.66,0,0,0,27.45,18.2a6.48,6.48,0,0,0-.5-2.511c-.268-.743-.446-1.234-.091-1.724a1.387,1.387,0,0,1,1.946-.152,1.19,1.19,0,0,1,.543,1.056l-.021.74a.962.962,0,0,0,1.92.106c.26-3.315.739-5.678,1.3-6.427a6.083,6.083,0,0,1-6.068-5.614,2.366,2.366,0,0,1-.96.809Z" fill="#2a428c"/>
    <path id="Path_43" data-name="Path 43" d="M35.91,33.485c-.175-.441-.4-.945-.635-1.48l0,.023c-1.631-1.964-4.641-2.913-8.776-4.216a7.342,7.342,0,0,1-3.594-2.134,3.086,3.086,0,0,1-.655-1.294C19.3,27.282,12,35.778,14.932,46.7a86.4,86.4,0,0,1,2.606,21.612,34.57,34.57,0,0,0,12.783,5.126l4.168.5h0Q35.521,74,36.571,74h.084c.4-2.8,1.82-12.673,3.239-20.111C41.563,45.137,35.91,33.485,35.91,33.485Z" fill="#3c58a0"/>
    <path id="Path_44" data-name="Path 44" d="M32.891,42.606c-5.909-2.9-3.807-9.664-3.244-11.186a.576.576,0,0,0-.072-.534,1.525,1.525,0,0,1-.1-1.591.593.593,0,0,0-.016-.527c-.909-.311-1.895-.622-2.956-.956a7.342,7.342,0,0,1-3.594-2.134,3.086,3.086,0,0,1-.655-1.294C19.3,27.282,12,35.778,14.932,46.7a86.4,86.4,0,0,1,2.606,21.612,34.57,34.57,0,0,0,12.783,5.126l4.168.5h0Q35.521,74,36.571,74h.084c.4-2.8,1.82-12.673,3.239-20.111a18.971,18.971,0,0,0,.306-3.8C37.3,48.007,38.226,45.222,32.891,42.606Z" fill="#2a428c"/>
    <path id="Path_45" data-name="Path 45" d="M28.807,48.689A6.1,6.1,0,0,0,27,47.441a8.5,8.5,0,0,1-3.613-3.1A29.949,29.949,0,0,0,25.571,55.3c2.624,6.073,5.972,12.353,4.738,18.135a34.66,34.66,0,0,0,4.18.5,16.959,16.959,0,0,0-.548-10.99C31.889,57.678,29.653,53.073,28.807,48.689Z" fill="#bbea49"/>
    <path id="Path_46" data-name="Path 46" d="M27.463,59.587c.892-3.348,4.219-2.2,4.219-2.2a47.7,47.7,0,0,1-2.876-8.7A6.1,6.1,0,0,0,27,47.441a8.5,8.5,0,0,1-3.613-3.1A29.949,29.949,0,0,0,25.57,55.3c.614,1.421,1.267,2.854,1.893,4.289Z" fill="#9fd332"/>
    <path id="Path_47" data-name="Path 47" d="M42.16,14.828c-1.479-2.5-.4-6.09-.4-6.09-4.282,1.078-8.084-.844-9.251.272-.917.876-1.33,4.945-1.465,6.652a.783.783,0,0,1-.715.736.76.76,0,0,1-.8-.785l.021-.748a1.4,1.4,0,0,0-.643-1.233,1.584,1.584,0,0,0-2.22.207c-.779,1.075.61,2.16.548,4.352-.038,1.348-1.469,2.971-2.567,4.022a.534.534,0,0,1,.22.22,4.622,4.622,0,0,0,2.408,2.84c1.858.9,4.823,2.658,6.079,3.174a2.467,2.467,0,0,1,.78.548,5.282,5.282,0,0,1-.177-1.6c.275-3.873,4.607,0,6-.994,2.126-1.506.476-6.477,1.594-6.746,2.282-.549,2.052-2.327.574-4.825Z" fill="#f9ba8f"/>
    <path id="Path_48" data-name="Path 48" d="M29.538,15.614l.021-.748a1.4,1.4,0,0,0-.643-1.233,1.584,1.584,0,0,0-2.22.207c-.779,1.075.61,2.16.548,4.352-.038,1.348-1.469,2.971-2.567,4.022a.534.534,0,0,1,.22.22,4.622,4.622,0,0,0,2.408,2.84c1.858.9,4.823,2.658,6.079,3.174a2.467,2.467,0,0,1,.78.548,5.283,5.283,0,0,1-.177-1.6c.138-1.937,1.29-1.937,2.583-1.578A9.939,9.939,0,0,1,30.333,16.4a.76.76,0,0,1-.8-.785Z" fill="#ffaa7b"/>
    <path id="Path_49" data-name="Path 49" d="M35.123,30.379a3.129,3.129,0,0,0-1.681-2.073c-1.251-.514-4.2-2.259-6.071-3.17a4.5,4.5,0,0,1-2.331-2.756.692.692,0,0,0-1.1-.2L22.3,23.747a.713.713,0,0,0-.175.762s.429,2.216,3.964,3.331c4.393,1.385,7.546,2.333,9.171,4.4a.114.114,0,0,0,.2-.095Z" fill="#bbea49"/>
    <g id="Group_7" data-name="Group 7">
      <path id="Path_50" data-name="Path 50" d="M60.473,39.459l-.166.011c-.165.008-.331.013-.5.013h0a10.281,10.281,0,0,1-4.484-1.025,4.949,4.949,0,0,1-.756,1.085c-1.415,1.431-5.091,3.793-6.267,7.411a.235.235,0,0,1-.435.036,15.2,15.2,0,0,0-2.6-3.548c-1.082,3.026-4.028,9.085-10.844,11.777a17.284,17.284,0,0,0,6.9,2.922s4.955,3.782,8.992,2.6a1.77,1.77,0,0,1,.837-.042,2.561,2.561,0,0,0,2.016-.349,2.491,2.491,0,0,0,.946-1.723,1.727,1.727,0,0,1,.237-.7,50.134,50.134,0,0,0,6.406-18.488c-.093.009-.186.015-.279.021Z" fill="#f9ba8f"/>
      <path id="Path_51" data-name="Path 51" d="M45.353,52.779l-1.942-5.407a18.321,18.321,0,0,1-8.989,7.846,17.286,17.286,0,0,0,6.9,2.922c-.9-4.362,4.035-5.362,4.035-5.362Z" fill="#fcad6d"/>
    </g>
    <path id="Path_52" data-name="Path 52" d="M55.324,38.458a4.957,4.957,0,0,1-.756,1.085c-1.415,1.431-5.091,3.793-6.267,7.411a.235.235,0,0,1-.435.036,15.2,15.2,0,0,0-2.6-3.548,21.8,21.8,0,0,1-4.235,7.164c.606.326,1.341,1.282,2.255,1.562,6.856,2.1,6.963,1.611,8.284.274S57.86,43.77,57.86,39.3a10.28,10.28,0,0,1-2.536-.84Z" fill="#fcad6d"/>
    <path id="Path_53" data-name="Path 53" d="M43.987,42.222c-1.039,2.968-4,9.228-11.1,11.774a17.823,17.823,0,0,0,1.642,1.3c6.953-2.649,9.833-8.892,10.82-11.769-.4-.423-.855-.863-1.367-1.308Z" fill="#dae2fe"/>
    <path id="Path_54" data-name="Path 54" d="M39.58,49.585A16.963,16.963,0,0,1,32.891,54a17.823,17.823,0,0,0,1.642,1.3,17.025,17.025,0,0,0,6.661-4.607,7.1,7.1,0,0,1-1.614-1.107Z" fill="#aab9f2"/>
    <path id="Path_55" data-name="Path 55" d="M39.538,39.2A2.179,2.179,0,0,1,38.5,38.006l-.446-1.251a8.562,8.562,0,0,0-.648-1.428,8.411,8.411,0,0,0-7.642-4.214A8.557,8.557,0,0,0,26.7,47.441a6.061,6.061,0,0,1,2.678,2.35,19.043,19.043,0,0,0,3.64,4.317c7.093-2.566,10.044-8.854,11.069-11.8a23.423,23.423,0,0,0-4.545-3.11Z" fill="#4f71b6"/>
    <path id="Path_56" data-name="Path 56" d="M32.891,42.606c-5.909-2.9-3.807-9.664-3.244-11.186a.575.575,0,0,0,.026-.3A8.556,8.556,0,0,0,26.7,47.44a6.06,6.06,0,0,1,2.678,2.35,19.042,19.042,0,0,0,3.64,4.317,16.963,16.963,0,0,0,6.673-4.424c-2.3-2.031-1.8-4.628-6.8-7.077Z" fill="#3c58a0"/>
    <path id="Path_57" data-name="Path 57" d="M50.691,28.238a9.154,9.154,0,1,1,8.171,10.156A9.18,9.18,0,0,1,50.691,28.238Z" fill="#6289cc"/>
    <path id="Path_58" data-name="Path 58" d="M65.062,36.784a1.889,1.889,0,0,1-.253-.979.48.48,0,0,0-.436-.475c-3.038-.265-2.757-3.09-2.621-3.865a.486.486,0,0,0-.086-.37l-3.083-4.249a.474.474,0,0,0-.336-.191,2.855,2.855,0,0,1-2.737-3.61.485.485,0,0,0-.4-.548,1.573,1.573,0,0,1-.987-.545,9.278,9.278,0,0,0,5.68,16.513A9.034,9.034,0,0,0,65.062,36.784Z" fill="#4f71b6"/>
    <g id="Group_8" data-name="Group 8">
      <path id="Path_59" data-name="Path 59" d="M59.808,39.772A10.566,10.566,0,1,1,70.251,29.207,10.517,10.517,0,0,1,59.808,39.772Zm0-18.516a7.951,7.951,0,1,0,7.858,7.95A7.914,7.914,0,0,0,59.808,21.256Z" fill="#4f71b6"/>
    </g>
    <path id="Path_60" data-name="Path 60" d="M66.261,37.5l-.009,0a1.59,1.59,0,0,1-1.443-1.7.477.477,0,0,0-.155-.347,7.76,7.76,0,0,1-4.847,1.7,7.966,7.966,0,0,1-4.426-14.515.487.487,0,0,0-.267-.146,1.674,1.674,0,0,1-1.372-1.882,10.585,10.585,0,0,0,6.066,19.158A10.31,10.31,0,0,0,66.261,37.5Z" fill="#3c58a0"/>
    <path id="Path_61" data-name="Path 61" d="M57.176,28.1a2.834,2.834,0,0,1,3.709-1.577,2.89,2.89,0,0,1,1.559,3.753,2.834,2.834,0,0,1-3.709,1.577A2.89,2.89,0,0,1,57.176,28.1Z" fill="#dae2fe"/>
    <path id="Path_62" data-name="Path 62" d="M26.086,27.84c1.247.393,2.394.752,3.435,1.11a1.452,1.452,0,0,1,.616-2.355c-.974-.531-1.968-1.071-2.766-1.46a4.5,4.5,0,0,1-2.331-2.756.692.692,0,0,0-1.1-.2L22.3,23.747a.713.713,0,0,0-.175.762s.429,2.216,3.963,3.331Z" fill="#9fd332"/>
  </g>
</svg>
