<svg xmlns="http://www.w3.org/2000/svg" xmlns:xlink="http://www.w3.org/1999/xlink" width="23" height="18" viewBox="0 0 23 18">
  <defs>
    <clipPath id="clip-path">
      <rect id="crop" width="23" height="18" transform="translate(0 2.732)" fill="none"/>
    </clipPath>
  </defs>
  <g id="Vector_Smart_Object" data-name="Vector Smart Object" transform="translate(0 -2.731)" clip-path="url(#clip-path)">
    <g id="Page-1">
      <g id="_024---Dumbell" data-name="024---Dumbell">
        <path id="Shape" d="M1.15,14.078h.383v2.737A1.939,1.939,0,0,0,3.45,18.771a1.873,1.873,0,0,0,1.15-.4v.4a1.917,1.917,0,1,0,3.833,0V14.078h6.133v4.693a1.917,1.917,0,1,0,3.833,0v-.4a1.873,1.873,0,0,0,1.15.4,1.939,1.939,0,0,0,1.917-1.955V14.078h.383A1.162,1.162,0,0,0,23,12.9V10.558a1.162,1.162,0,0,0-1.15-1.173h-.383V6.648A1.939,1.939,0,0,0,19.55,4.693a1.873,1.873,0,0,0-1.15.4v-.4a1.917,1.917,0,1,0-3.833,0V9.385H8.433V4.693a1.917,1.917,0,1,0-3.833,0v.4a1.873,1.873,0,0,0-1.15-.4A1.939,1.939,0,0,0,1.533,6.648V9.385H1.15A1.162,1.162,0,0,0,0,10.558V12.9A1.162,1.162,0,0,0,1.15,14.078Zm20.7-3.911a.387.387,0,0,1,.383.391V12.9a.387.387,0,0,1-.383.391h-.383V10.167h.383Zm-2.3-4.693A1.162,1.162,0,0,1,20.7,6.648V16.815a1.15,1.15,0,1,1-2.3,0V6.648A1.162,1.162,0,0,1,19.55,5.475Zm-4.217-.782a1.15,1.15,0,1,1,2.3,0V18.771a1.15,1.15,0,1,1-2.3,0Zm-.767,5.475V13.3H8.433V10.167Zm-9.2-5.475a1.15,1.15,0,1,1,2.3,0V18.771a1.15,1.15,0,1,1-2.3,0ZM2.3,6.648a1.15,1.15,0,1,1,2.3,0V16.815a1.15,1.15,0,1,1-2.3,0ZM.767,10.558a.387.387,0,0,1,.383-.391h.383V13.3H1.15A.387.387,0,0,1,.767,12.9Z" stroke="#000" stroke-miterlimit="10" stroke-width="0.011"/>
      </g>
    </g>
  </g>
</svg>
